…
``` r
library(readxl)
```

A partir daí, ler o arquivo é uma tarefa fácil. Você só precisa usar a
função `read_xlsx()` (“ler xlsx” em inglês):

``` r
dicionario <- read_xlsx(caminho_dicionario)

dicionario
```

    #> # A tibble: 55 x 2
    #>    CAMPO     DESCRIÇÃO                                                    
    #>    <chr>     <chr>                                                        
    #>  1 DRE       sigla da Diretoria Regional de Educação (descrição no campo …
    #>  2 CODESC    código EOL da escola (Escola On Line, sistema da Secretaria …
    #>  3 TIPOESC   "tipo da escola:\r\nCCA -Centro para Crianças e Adolescentes…
    #>  4 NOMESC    nome da escola                                               
    #>  5 DIRETORIA Nome da Diretoria Regional de Educação - DRE                 
    #>  6 SUBPREF   subprefeitura onde se localiza a escola                      
    #>  7 CEU       nome do Centro de Educação Unificado - CEU da escola, quando…
    #>  8 ENDERECO  endereço da escola                                           
    #>  9 NUMERO    número da escola                                             
    #> 10 BAIRRO    bairro da escola                                             
    #> # ... with 45 more rows
…
    #> Warning: 1139 parsing failures.
    #> row # A tibble: 5 x 5 col     row col   expected  actual    file                                 expected   <int> <chr> <chr>     <chr>     <chr>                                actual 1     3 <NA>  1 columns 2 columns 'README_files/escolasr34dez2017.csv' file 2     4 <NA>  1 columns 2 columns 'README_files/escolasr34dez2017.csv' row 3     5 <NA>  1 columns 2 columns 'README_files/escolasr34dez2017.csv' col 4     6 <NA>  1 columns 2 columns 'README_files/escolasr34dez2017.csv' expected 5     8 <NA>  1 columns 2 columns 'README_files/escolasr34dez2017.csv'
    #> ... ................. ... ...................................................................... ........ ...................................................................... ...... ...................................................................... .... ...................................................................... ... ...................................................................... ... ...................................................................... ........ ......................................................................
    #> See problems(...) for more details.

Observe a linha que diz “*Warning: 1139 parsing failures*”; isso
significa “Alerta: 1139 falhas de processamento”\! Provavelmente alguma
coisa deu errado… Veja o que foi salvo no objeto `cadastro`:

``` r
cadastro
```

    #> # A tibble: 6,878 x 1
    #>    `DRE;CODESC;TIPOESC;NOMESC;DIRETORIA;SUBPREF;CEU;ENDERECO;NUMERO;BAIRRO…
    #>    <chr>                                                                   
    #>  1 "G;000086;EMEI;PAULO CAMILHIER FLORENCANO;GUAIANASES;GUAIANASES;;RUA FE…
    #>  2 FO;000094;EMEI;VICENTE PAULO DA SILVA;FREGUESIA/BRASILANDIA;CASA VERDE/…
    #>  3 MP;000108;EMEF;JOSE ERMIRIO DE MORAIS                                   
    #>  4 BT;000191;EMEF;ALIPIO CORREA NETO                                       
    #>  5 PJ;000205;EMEBS;VERA LUCIA APARECIDA RIBEIRO                            
    #>  6 BT;000213;EMEI;ANTONIO CARLOS PACHECO E SILVA                           
    #>  7 FO;000221;EMEI;NAIR CORREA BUARQUE;FREGUESIA/BRASILANDIA;FREGUESIA/BRAS…
    #>  8 JT;000230;EMEI;MARIA YOLANDA DE SOUZA PINTO HAHNE                       
    #>  9 JT;000248;EMEI;WALFRIDO DE CARVALHO                                     
    #> 10 CL;000256;EMEI;WILMA ALVARENGA DE OLIVEIRA                              
    #> # ... with 6,868 more rows

### Importando CSV2

Perceba que ele leu tudo como se fosse apenas uma coluna\! Esse erro é
extremamente comum quando se tenta ler um CSV2 como se fosse um CSV
normal. Como descrito acima, eles são bem diferentes apesar de terem a
mesma extensão…

``` r
cadastro <- read_csv2(caminho_cadastro)

cadastro
```

    #> # A tibble: 6,878 x 53
    #>    DRE   CODESC TIPOESC NOMESC DIRETORIA SUBPREF CEU   ENDERECO NUMERO
    #>    <chr> <chr>  <chr>   <chr>  <chr>     <chr>   <chr> <chr>    <chr> 
    #>  1 G     000086 EMEI    PAULO… GUAIANAS… GUAIAN… <NA>  "RUA FE… 502   
    #>  2 FO    000094 EMEI    VICEN… FREGUESI… CASA V… <NA>  RUA DOU… 295   
    #>  3 MP    000108 EMEF    JOSE … SAO MIGU… SAO MI… <NA>  RUA SAO… 159   
    #>  4 BT    000191 EMEF    ALIPI… BUTANTA   BUTANTA <NA>  AVENIDA… 140   
    #>  5 PJ    000205 EMEBS   VERA … PIRITUBA  PIRITU… <NA>  RUA BEN… 206   
    #>  6 BT    000213 EMEI    ANTON… BUTANTA   BUTANTA <NA>  "AVENID… 90    
    #>  7 FO    000221 EMEI    NAIR … FREGUESI… FREGUE… <NA>  RUA SAN… 51    
    #>  8 JT    000230 EMEI    MARIA… JACANA/T… VILA M… <NA>  RUA GAS… 340   
    #>  9 JT    000248 EMEI    WALFR… JACANA/T… JACANA… <NA>  RUA VIC… 200   
    #> 10 CL    000256 EMEI    WILMA… CAMPO LI… CAMPO … <NA>  RUA INT… 395   
    #> # ... with 6,868 more rows, and 44 more variables: BAIRRO <chr>,
    #> #   CEP <chr>, TEL1 <chr>, TEL2 <chr>, FAX <chr>, SITUACAO <chr>,
    #> #   CODDIST <chr>, DISTRITO <chr>, SETOR <chr>, CODINEP <int>,
    #> #   CODCIE <int>, EH <dbl>, DT_CRIACAO <chr>, ATO_CRIACAO <chr>,
    #> #   DOM_CRIACAO <chr>, DT_INI_FUNC <chr>, DT_AUTORIZA <chr>,
    #> #   NOME_ANT <chr>, T2D3D <chr>, T2D3D16 <chr>, T2D3D15 <chr>,
    #> #   T2D3D14 <chr>, T2D3D13 <chr>, T2D3D12 <chr>, T2D3D11 <chr>,
    #> #   T2D3D10 <chr>, T2D3D09 <chr>, T2D3D08 <chr>, T2D3D07 <chr>,
    #> #   DTURNOS <chr>, DTURNOS16 <chr>, DTURNOS15 <chr>, DTURNOS14 <chr>,
…
