…
Uma grande utilidade da detecção de textos é junto com a função
`filter()`. Veja por exemplo como `str_detect()` é utilizada para
selecionar todas as linhas de `turmas` em que `DISTRITO` contém a
palavra “VILA”:

``` r
turmas %>%
  filter(str_detect(DISTRITO, "VILA")) %>%
  select(DISTRITO)
```

    #> # A tibble: 7,274 x 1
    #>    DISTRITO  
    #>    <chr>     
    #>  1 VILA SONIA
    #>  2 VILA SONIA
    #>  3 VILA SONIA
    #>  4 VILA SONIA
    #>  5 VILA SONIA
    #>  6 VILA SONIA
    #>  7 VILA SONIA
    #>  8 VILA SONIA
    #>  9 VILA SONIA
    #> 10 VILA SONIA
    #> # ... with 7,264 more rows
…
``` r
str_to_upper(textos)
```

    #> [1] "01-FEMININO"   "02-MASCULINO"  "03-INDEFINIDO"

``` r
turmas %>%
  mutate(distrito = str_to_lower(DISTRITO)) %>%
  distinct(distrito)
```

    #> # A tibble: 96 x 1
    #>    distrito         
    #>    <chr>            
    #>  1 vila sonia       
    #>  2 raposo tavares   
    #>  3 rio pequeno      
    #>  4 butanta          
    #>  5 itaim bibi       
    #>  6 pinheiros        
    #>  7 jardim paulista  
    #>  8 morumbi          
    #>  9 alto de pinheiros
    #> 10 capao redondo    
    #> # ... with 86 more rows
…
