…
A limpeza mais simples que você pode fazer em uma tabela é selecionar um
subconjunto de colunas. Aqui você utilizará uma função chamada
`select()` (“selecionar”) e algumas auxiliares chamadas `starts_with()`
(“começa com”) e `contains()` (“contém”). Só não se esqueça de carregar
o `tidyverse`\!

``` r
library(tidyverse)

# Selecionando duas colunas por nome
select(cadastro, NOMESC, DATABASE)
```

    #> # A tibble: 6,878 x 2
    #>    NOMESC                                  DATABASE 
    #>    <chr>                                   <chr>    
    #>  1 PAULO CAMILHIER FLORENCANO              28-dez-17
    #>  2 VICENTE PAULO DA SILVA                  28-dez-17
    #>  3 JOSE ERMIRIO DE MORAIS, SEN.            28-dez-17
    #>  4 ALIPIO CORREA NETO, PROF.               28-dez-17
    #>  5 VERA LUCIA APARECIDA RIBEIRO, PROFA.    28-dez-17
    #>  6 ANTONIO CARLOS PACHECO E SILVA, PROF.   28-dez-17
    #>  7 NAIR CORREA BUARQUE                     28-dez-17
    #>  8 MARIA YOLANDA DE SOUZA PINTO HAHNE, DA. 28-dez-17
    #>  9 WALFRIDO DE CARVALHO, CEL.              28-dez-17
    #> 10 WILMA ALVARENGA DE OLIVEIRA, PROFA.     28-dez-17
    #> # ... with 6,868 more rows
…
### Filtrando linhas

Outra limpeza que você pode querer fazer em uma base é remover linhas
indesejadas. Às vezes você sabe que uma coluna não pode ter um valor
pequeno demais, que uma coluna não pode ter um certo valor específico, e
assim por diante. Para fazer isso vamos utilizar a função `filter()`
(“filtrar”).

``` r
# Filtrar escolas da Diretoria Regional abreviada por "FO"
filter(cadastro, DRE == "FO")
```

    #> # A tibble: 406 x 53
    #>    DRE   CODESC TIPOESC NOMESC DIRETORIA SUBPREF CEU   ENDERECO NUMERO
    #>    <chr> <chr>  <chr>   <chr>  <chr>     <chr>   <chr> <chr>    <chr> 
    #>  1 FO    000094 EMEI    VICEN… FREGUESI… CASA V… <NA>  RUA DOU… 295   
    #>  2 FO    000221 EMEI    NAIR … FREGUESI… FREGUE… <NA>  RUA SAN… 51    
    #>  3 FO    000299 EMEF    ROBER… FREGUESI… CASA V… <NA>  RUA ANT… 147   
    #>  4 FO    013111 EMEI    CAIO … FREGUESI… FREGUE… <NA>  RUA PED… 74    
    #>  5 FO    013315 EMEI    MARIA… FREGUESI… CASA V… <NA>  RUA SOL… 303   
    #>  6 FO    014567 EMEI    TITO … FREGUESI… FREGUE… <NA>  RUA JER… 300   
    #>  7 FO    018295 EMEI    ALEX … FREGUESI… FREGUE… <NA>  RUA SAN… 185   
    #>  8 FO    018554 EMEI    ANTON… FREGUESI… CASA V… <NA>  RUA ARA… 100   
    #>  9 FO    019252 EMEI    JOSE … FREGUESI… FREGUE… <NA>  RUA MON… S/N   
    #> 10 FO    019304 CEU EM… PAZ    FREGUESI… FREGUE… PAZ   RUA DAN… 1549  
    #> # ... with 396 more rows, and 44 more variables: BAIRRO <chr>, CEP <chr>,
    #> #   TEL1 <chr>, TEL2 <chr>, FAX <chr>, SITUACAO <chr>, CODDIST <chr>,
    #> #   DISTRITO <chr>, SETOR <chr>, CODINEP <int>, CODCIE <int>, EH <dbl>,
    #> #   DT_CRIACAO <chr>, ATO_CRIACAO <chr>, DOM_CRIACAO <chr>,
    #> #   DT_INI_FUNC <chr>, DT_AUTORIZA <chr>, NOME_ANT <chr>, T2D3D <chr>,
    #> #   T2D3D16 <chr>, T2D3D15 <chr>, T2D3D14 <chr>, T2D3D13 <chr>,
    #> #   T2D3D12 <chr>, T2D3D11 <chr>, T2D3D10 <chr>, T2D3D09 <chr>,
    #> #   T2D3D08 <chr>, T2D3D07 <chr>, DTURNOS <chr>, DTURNOS16 <chr>,
    #> #   DTURNOS15 <chr>, DTURNOS14 <chr>, DTURNOS13 <chr>, DTURNOS12 <chr>,
…
### Ordenando colunas

A última função que você aprenderá neste tutorial é `arrange()`
(“organizar”). Ela recebe uma tabela e uma série de colunas,
ordenando-as uma a uma exatamente da mesma forma que acontece no SQL por
exemplo. Com `desc()` também é possível ordenar as colunas de forma
decrescente.

``` r
# Ordenar escolas por ordem alfabética de DRE
arrange(cadastro, DRE)
```

    #> # A tibble: 6,878 x 53
    #>    DRE   CODESC TIPOESC NOMESC DIRETORIA SUBPREF CEU   ENDERECO NUMERO
    #>    <chr> <chr>  <chr>   <chr>  <chr>     <chr>   <chr> <chr>    <chr> 
    #>  1 BT    000191 EMEF    ALIPI… BUTANTA   BUTANTA <NA>  AVENIDA… 140   
    #>  2 BT    000213 EMEI    ANTON… BUTANTA   BUTANTA <NA>  AVENIDA… 90    
    #>  3 BT    000477 EMEF    EDA T… BUTANTA   BUTANTA <NA>  RUA ENG… 333   
    #>  4 BT    011924 EMEF    MARIA… BUTANTA   BUTANTA <NA>  RUA CAC… 575   
    #>  5 BT    014591 EMEI    BENED… BUTANTA   BUTANTA <NA>  RUA CAC… S/N   
    #>  6 BT    018236 EMEI    MARIA… BUTANTA   BUTANTA <NA>  RUA JOA… S/N   
    #>  7 BT    018244 EMEI    CAMIL… BUTANTA   BUTANTA <NA>  RUA JOS… 495   
    #>  8 BT    018384 EMEI    MOREN… BUTANTA   BUTANTA <NA>  RUA MAR… 381   
    #>  9 BT    019160 EMEF    ILEUS… BUTANTA   BUTANTA <NA>  RUA D    10    
    #> 10 BT    019242 EMEI    MARIA… BUTANTA   BUTANTA <NA>  RUA EUD… 118   
    #> # ... with 6,868 more rows, and 44 more variables: BAIRRO <chr>,
    #> #   CEP <chr>, TEL1 <chr>, TEL2 <chr>, FAX <chr>, SITUACAO <chr>,
    #> #   CODDIST <chr>, DISTRITO <chr>, SETOR <chr>, CODINEP <int>,
    #> #   CODCIE <int>, EH <dbl>, DT_CRIACAO <chr>, ATO_CRIACAO <chr>,
    #> #   DOM_CRIACAO <chr>, DT_INI_FUNC <chr>, DT_AUTORIZA <chr>,
    #> #   NOME_ANT <chr>, T2D3D <chr>, T2D3D16 <chr>, T2D3D15 <chr>,
    #> #   T2D3D14 <chr>, T2D3D13 <chr>, T2D3D12 <chr>, T2D3D11 <chr>,
    #> #   T2D3D10 <chr>, T2D3D09 <chr>, T2D3D08 <chr>, T2D3D07 <chr>,
    #> #   DTURNOS <chr>, DTURNOS16 <chr>, DTURNOS15 <chr>, DTURNOS14 <chr>,
…
