…
Um gráfico interessante de se fazer com a base `turmas` é o de turmas
registradas no sistema ao longo do tempo, ou seja, em cada dia do ano
quantas turmas foram registradas em cada dia. Para isso você utilizará a
coluna `Dt_Inclusao` mas antes precisará transformá-la de texto para
data.

``` r
turmas %>%
  select(Dt_Inclusao)
```

    #> # A tibble: 74,991 x 1
    #>    Dt_Inclusao
    #>    <chr>      
    #>  1 28/02/2018 
    #>  2 16/03/2018 
    #>  3 19/03/2018 
    #>  4 28/02/2018 
    #>  5 28/02/2018 
    #>  6 28/02/2018 
    #>  7 28/02/2018 
    #>  8 13/03/2018 
    #>  9 28/02/2018 
    #> 10 31/08/2017 
    #> # ... with 74,981 more rows
…
``` r
library(lubridate)

turmas %>%
  mutate(Dt_Inclusao = dmy(Dt_Inclusao)) %>%
  select(Dt_Inclusao)
```

    #> # A tibble: 74,991 x 1
    #>    Dt_Inclusao
    #>    <date>     
    #>  1 2018-02-28 
    #>  2 2018-03-16 
    #>  3 2018-03-19 
    #>  4 2018-02-28 
    #>  5 2018-02-28 
    #>  6 2018-02-28 
    #>  7 2018-02-28 
    #>  8 2018-03-13 
    #>  9 2018-02-28 
    #> 10 2017-08-31 
    #> # ... with 74,981 more rows

Perceba que agora o tipo da coluna mudou de `<chr>` (“texto”) para
`<date>` (“data”)\!

Com esta pequena transformação agora é possível fazer a coluna resumo
necessária para a visualização:

``` r
turmas %>%
  mutate(Dt_Inclusao = dmy(Dt_Inclusao)) %>%
  group_by(Dt_Inclusao) %>%
  summarise(INCLUIDAS = n())
```

    #> # A tibble: 259 x 2
    #>    Dt_Inclusao INCLUIDAS
    #>    <date>          <int>
    #>  1 2017-08-16         30
    #>  2 2017-08-17         40
    #>  3 2017-08-18        143
    #>  4 2017-08-19         19
    #>  5 2017-08-21        351
    #>  6 2017-08-22        213
    #>  7 2017-08-23        273
    #>  8 2017-08-24        480
    #>  9 2017-08-25        585
    #> 10 2017-08-26         54
    #> # ... with 249 more rows
…
